Homework #6: SVM and Calibration
…
print(risk_analysis)

# A tibble: 10 × 5
  score     n recid_prob ci_lower ci_upper
  <dbl> <int>      <dbl>    <dbl>    <dbl>
1     1  1340     0.0619   0.0490   0.0748
2     2   622     0.0932   0.0704   0.116 
3     3   543     0.171    0.140    0.203 
4     4   408     0.176    0.139    0.213 
5     5   325     0.185    0.142    0.227 
6     6   300     0.283    0.232    0.334 
# ℹ 4 more rows
…
